1 Data at 4_0A.csv

#Digilent WaveForms Oscilloscope Acquisition
#Device Name: PlasmaStuff
#Serial Number: SN:210321A41FE0
#Date Time: 2018-11-27 16:28:58.478
#Sample rate: 40000Hz
#Samples: 8192
#Trigger: Source: Channel 2 Type: Edge Condition: Rising Level: 200 mV Hyst.: Auto HoldOff: 0 s
#Channel 1: Range: 2 V/div Offset: 8.6 V
#Channel 2: Range: 2 V/div Offset: 0 V

Time (s),Channel 1 (V),Channel 2 (V)
-0.10237500000000001,-7.5286867015750989,0.054629945112958767
-0.10235,-7.528686701575106,0.050912559366075825
-0.102325,-7.5433780681032214,0.047195173619196271
-0.1023,-7.5507237513672818,0.043477787872315016
-0.102275,-7.5543965929993124,0.039760402125433768
-0.10225000000000001,-7.5580694346313431,0.039760402125433768
-0.102225,-7.5617422762633719,0.036043016378550827
-0.1022,-7.5580694346313431,0.032325630631671272
-0.102175,-7.5543965929993124,0.028608244884790024
-0.10215,-7.5543965929993124,0.024890859137908776
-0.10212500000000001,-7.5543965929993124,0.021173473391027525
-0.1021,-7.5507237513672854,0.017456087644146277
-0.102075,-7.5580694346313431,0.017456087644146277
-0.10205,-7.5727608011594647,0.013738701897265029
-0.102025,-7.580106484423526,0.010021316150383779
-0.10200000000000001,-7.5874521676875872,0.010021316150383779
-0.101975,-7.5911250093196196,0.0063039304035008396
-0.10195,-7.5947978509516485,0.0025865446566212813
-0.101925,-7.5984706925836791,-0.0011308410902599675
-0.1019,-7.5874521676875872,-0.0011308410902599675
-0.10187500000000001,-7.569087959527435,-0.0048482268371412163
-0.10185,-7.5837793260555619,-0.0048482268371429068
-0.101825,-7.5947978509516485,-0.008565612584022466
-0.1018,-7.5984706925836791,-0.016000384077784962
-0.101775,-7.5947978509516485,-0.016000384077784962
-0.10175000000000001,-7.6058163758477395,-0.019717769824666213
-0.101725,-7.616834900743835,-0.023435155571549151
-0.1017,-7.6241805840078927,-0.027152541318428709
-0.101675,-7.6241805840078927,-0.027152541318428709
-0.10165,-7.620507742375862,-0.034587312812191205
-0.10162500000000001,-7.6278534256399233,-0.034587312812191205
-0.1016,-7.6315262672719522,-0.038304698559074146
-0.101575,-7.6278534256399233,-0.042022084305953708
-0.10155,-7.6168349007438314,-0.045739470052834956
-0.101525,-7.6315262672719539,-0.045739470052834956
-0.10150000000000001,-7.6388719505360143,-0.049456855799716204
-0.10147500000000001,-7.646217633800072,-0.053174241546595759
-0.10145,-7.6498904754321062,-0.0568916272934787
-0.101425,-7.6535633170641368,-0.0568916272934787
-0.1014,-7.6498904754321062,-0.060609013040359955
-0.10137500000000001,-7.6498904754321062,-0.064326398787241196
-0.10135000000000001,-7.6535633170641351,-0.064326398787241196
-0.101325,-7.6609090003281981,-0.068043784534122451
-0.1013,-7.6572361586961675,-0.071761170281003692
-0.101275,-7.6535633170641368,-0.075478556027884947
-0.10125000000000001,-7.6609090003281981,-0.075478556027884947
-0.10122500000000001,-7.6645818419602261,-0.079195941774764494
-0.1012,-7.6719275252242891,-0.082913327521647442
-0.101175,-7.6792732084883504,-0.086630713268528697
-0.10115,-7.6792732084883504,-0.086630713268528697
-0.10112500000000001,-7.682946050120381,-0.090348099015409938
-0.10110000000000001,-7.6866188917524099,-0.0940654847622895
-0.101075,-7.6866188917524116,-0.097782870509172434
-0.10105,-7.6902917333844423,-0.097782870509172434
-0.101025,-7.6902917333844423,-0.10150025625605369
-0.10100000000000001,-7.6902917333844423,-0.10521764200293493
-0.10097500000000001,-7.6829460501203846,-0.10893502774981449
-0.10095,-7.6866188917524116,-0.10893502774981619
-0.100925,-7.6939645750164729,-0.11265241349669743
-0.1009,-7.6976374166485027,-0.11265241349669743
-0.10087500000000001,-7.7013102582805333,-0.12008718499045994
-0.10085000000000001,-7.6976374166485044,-0.12008718499045994
-0.100825,-7.7013102582805333,-0.12008718499045994
-0.1008,-7.7086559415445945,-0.12752195648422243
-0.100775,-7.7123287831766252,-0.12752195648422243
-0.10075000000000001,-7.7123287831766252,-0.13123934223110367
-0.10072500000000001,-7.716001624808654,-0.13495672797798322
-0.1007,-7.7160016248086558,-0.13867411372486618
-0.100675,-7.7196744664406864,-0.14239149947174742
-0.10065,-7.7233473080727171,-0.14239149947174742
-0.10062500000000001,-7.7160016248086558,-0.14610888521862866
-0.10060000000000001,-7.712328783176627,-0.14982627096550824
-0.100575,-7.7196744664406864,-0.15354365671239117
-0.10055,-7.7233473080727171,-0.15354365671239117
-0.100525,-7.7306929913367775,-0.15726104245927242
-0.10050000000000001,-7.7306929913367775,-0.16097842820615366
-0.10047500000000001,-7.7306929913367775,-0.16097842820615366
-0.10045,-7.7270201497047477,-0.16469581395303493
-0.100425,-7.7270201497047477,-0.16841319969991617
-0.1004,-7.7306929913367775,-0.16841319969991617
-0.10037500000000001,-7.7306929913367775,-0.17213058544679741
-0.10035000000000001,-7.7306929913367775,-0.17584797119367698
-0.100325,-7.7343658329688081,-0.17584797119367868
-0.1003,-7.7380386746008387,-0.17956535694055992
-0.100275,-7.7417115162328694,-0.18328274268744116
-0.10025000000000001,-7.7417115162328694,-0.1870001284343224
-0.10022500000000001,-7.7453843578648982,-0.1870001284343224
-0.1002,-7.7417115162328694,-0.19071751418120367
-0.100175,-7.7343658329688081,-0.19443489992808491
-0.10015,-7.7343658329688081,-0.19443489992808491
-0.10012500000000001,-7.7453843578649,-0.20186967142184739
-0.10010000000000001,-7.7490571994969306,-0.20186967142184739
-0.100075,-7.756402882760991,-0.20558705716872866
-0.10005,-7.756402882760991,-0.2093044429156099
-0.100025,-7.7490571994969306,-0.2093044429156099
-0.10000000000000001,-7.7527300411289612,-0.21302182866249114
-0.099975000000000008,-7.7527300411289612,-0.21302182866249114
-0.099949999999999997,-7.756402882760991,-0.21673921440937241
-0.099925,-7.7600757243930216,-0.21673921440937241
-0.099900000000000003,-7.7637485660250523,-0.22045660015625365
-0.099875000000000005,-7.7674214076570829,-0.22417398590313489
-0.099850000000000008,-7.7674214076570829,-0.22789137165001613
-0.099824999999999997,-7.7674214076570829,-0.2316087573968974
-0.0998,-7.7674214076570829,-0.2316087573968974
-0.099775000000000003,-7.7674214076570829,-0.23532614314377864
-0.099750000000000005,-7.7710942492891135,-0.23904352889065988
-0.099725000000000008,-7.7710942492891135,-0.24276091463754115
-0.099699999999999997,-7.77109424928911,-0.24276091463754285
-0.099675,-7.7637485660250523,-0.24647830038442239
-0.099650000000000002,-7.7637485660250523,-0.25019568613130366
-0.099625000000000005,-7.7674214076570829,-0.2539130718781849
-0.099600000000000008,-7.7710942492891135,-0.2539130718781849
-0.099574999999999997,-7.7710942492891153,-0.25763045762506781
-0.09955,-7.7747670909211442,-0.26134784337194739
-0.099525000000000002,-7.7784399325531748,-0.26134784337194739
-0.099500000000000005,-7.7821127741852054,-0.26506522911882863
-0.099475000000000008,-7.7821127741852054,-0.26878261486570987
-0.099449999999999997,-7.7821127741852072,-0.26878261486571153
-0.099424999999999999,-7.785785615817236,-0.27250000061259111
-0.099400000000000002,-7.785785615817236,-0.27621738635947241
-0.099375000000000005,-7.7894584574492658,-0.27993477210635365
-0.099350000000000008,-7.7894584574492658,-0.28365215785323489
-0.099324999999999997,-7.7710942492891117,-0.28365215785323655
-0.099299999999999999,-7.7674214076570829,-0.28736954360011613
-0.099275000000000002,-7.7784399325531748,-0.29108692934699737
-0.099250000000000005,-7.785785615817236,-0.29108692934699737
-0.099225000000000008,-7.7894584574492658,-0.29480431509387861
-0.099199999999999997,-7.7931312990812946,-0.294804315093882
-0.099174999999999999,-7.7894584574492658,-0.30223908658764115
-0.099150000000000002,-7.7931312990812964,-0.30595647233452239
-0.099125000000000005,-7.7894584574492658,-0.30967385808140363
-0.099100000000000008,-7.785785615817236,-0.30967385808140363
-0.099074999999999996,-7.7931312990812982,-0.31339124382828654
-0.099049999999999999,-7.7968041407133271,-0.31710862957516611
-0.099025000000000002,-7.8004769823453577,-0.32082601532204735
-0.099000000000000005,-7.8004769823453577,-0.32082601532204735
-0.098975000000000007,-7.8041498239773883,-0.32454340106892859
-0.098949999999999996,-7.8041498239773848,-0.32454340106893026
-0.098924999999999999,-7.7968041407133271,-0.32826078681580989
-0.098900000000000002,-7.8004769823453577,-0.33197817256269113
-0.098875000000000005,-7.8041498239773883,-0.33197817256269113
-0.098850000000000007,-7.8041498239773883,-0.33569555830957237
-0.098824999999999996,-7.8041498239773883,-0.33941294405645528
-0.098799999999999999,-7.8041498239773883,-0.34313032980333485
-0.098775000000000002,-7.807822665609419,-0.34313032980333485
-0.098750000000000004,-7.807822665609419,-0.3468477155502161
-0.098725000000000007,-7.8041498239773883,-0.35056510129709734
-0.098699999999999996,-7.807822665609419,-0.35428248704397863
-0.098674999999999999,-7.807822665609419,-0.35428248704397863
-0.098650000000000002,-7.8114955072414496,-0.35799987279085987
-0.098625000000000004,-7.8004769823453577,-0.36171725853774112
-0.098600000000000007,-7.7747670909211442,-0.36543464428462236
-0.098574999999999996,-7.7674214076570882,-0.36543464428462402
-0.098549999999999999,-7.7784399325531748,-0.3691520300315036
-0.098525000000000001,-7.7931312990812964,-0.3691520300315036
-0.098500000000000004,-7.7968041407133271,-0.37286941577838484
-0.098475000000000007,-7.8041498239773883,-0.37286941577838484
-0.098449999999999996,-7.8078226656094207,-0.37658680152526774
-0.098424999999999999,-7.8114955072414496,-0.38030418727214732
-0.098400000000000001,-7.8151683488734802,-0.38402157301902862
-0.098375000000000004,-7.8188411905055109,-0.38402157301902862
-0.098350000000000007,-7.8188411905055109,-0.3914563445127911
-0.09832500000000001,-7.8225140321375388,-0.3914563445127911
-0.098299999999999998,-7.8225140321375406,-0.39517373025967234
-0.098275000000000001,-7.8225140321375406,-0.40260850175343482
-0.098250000000000004,-7.8114955072414496,-0.40260850175343482
-0.098225000000000007,-7.807822665609419,-0.40632588750031606
-0.09820000000000001,-7.8114955072414478,-0.41004327324719569
-0.098174999999999998,-7.8188411905055109,-0.4137606589940786
-0.098150000000000001,-7.8188411905055109,-0.4137606589940786
-0.098125000000000004,-7.8114955072414496,-0.41747804474095984
-0.098100000000000007,-7.8151683488734802,-0.42119543048784108
-0.098075000000000009,-7.8188411905055091,-0.42119543048784108
-0.098049999999999998,-7.8225140321375406,-0.42491281623472232
-0.098025000000000001,-7.8261868737695712,-0.42491281623472232
-0.098000000000000004,-7.8298597154016019,-0.42863020198160356
-0.097975000000000007,-7.8225140321375406,-0.43234758772848481
-0.097950000000000009,-7.8261868737695695,-0.43606497347536444
-0.097924999999999998,-7.8298597154016019,-0.43978235922224734
-0.097900000000000001,-7.8298597154016019,-0.43978235922224734
-0.097875000000000004,-7.8298597154016019,-0.44721713071600983
-0.097850000000000006,-7.8151683488734802,-0.44721713071600983
-0.097825000000000009,-7.8114955072414514,-0.44721713071600983
-0.097799999999999998,-7.8151683488734802,-0.45465190220977231
-0.097775000000000001,-7.8261868737695712,-0.45465190220977231
-0.097750000000000004,-7.8261868737695712,-0.45836928795665355
-0.097725000000000006,-7.8298597154016019,-0.46208667370353484
-0.097700000000000009,-7.8335325570336307,-0.46208667370353484
-0.097674999999999998,-7.8298597154016019,-0.46952144519729733
-0.097650000000000001,-7.8298597154016019,-0.47323883094417857
-0.097625000000000003,-7.8372053986656631,-0.47695621669105981
-0.097600000000000006,-7.8372053986656631,-0.47695621669105981
-0.097575000000000009,-7.8335325570336343,-0.48067360243793938
-0.097549999999999998,-7.8372053986656631,-0.48067360243794105
-0.097525000000000001,-7.8188411905055109,-0.48439098818482229
-0.097500000000000003,-7.8041498239773883,-0.48810837393170359
-0.097475000000000006,-7.8188411905055109,-0.49182575967858483
-0.097450000000000009,-7.8335325570336254,-0.4955431454254644
-0.097424999999999998,-7.8408782402976938,-0.49926053117234731
-0.0974,-7.8408782402976938,-0.49926053117234731
-0.097375000000000003,-7.8408782402976938,-0.50297791691922855
-0.097350000000000006,-7.8408782402976938,-0.50669530266610985
-0.097325000000000009,-7.8445510819297226,-0.51041268841298948
-0.097299999999999998,-7.8372053986656631,-0.51413007415987222
-0.097275,-7.8372053986656631,-0.51784745990675352
-0.097250000000000003,-7.8408782402976938,-0.52156484565363481
-0.097225000000000006,-7.8408782402976938,-0.52528223140051611
-0.097200000000000009,-7.8408782402976938,-0.52528223140051611
-0.097174999999999997,-7.8408782402976938,-0.52899961714739741
-0.09715,-7.8445510819297244,-0.53271700289427848
-0.097125000000000003,-7.8408782402976938,-0.53643438864115978
-0.097100000000000006,-7.8445510819297244,-0.53643438864115978
-0.097075000000000009,-7.8408782402976955,-0.53643438864115978
-0.097049999999999997,-7.8408782402976938,-0.54015177438804107
-0.097025,-7.8482239235617541,-0.54386916013492237
-0.097000000000000003,-7.8482239235617541,-0.54386916013492237
-0.096975000000000006,-7.8518967651937848,-0.54015177438804107
-0.096950000000000008,-7.8518967651937848,-0.54015177438804107
-0.096924999999999997,-7.8445510819297244,-0.53643438864115978
-0.0969,-7.8408782402976938,-0.53271700289427848
-0.096875000000000003,-7.8408782402976938,-0.53271700289427848
-0.096850000000000006,-7.8445510819297244,-0.52899961714739741
-0.096825000000000008,-7.8445510819297244,-0.52899961714739741
-0.096799999999999997,-7.8445510819297244,-0.52528223140051611
-0.096775,-7.8445510819297244,-0.52528223140051611
-0.096750000000000003,-7.8482239235617541,-0.52156484565363481
-0.096725000000000005,-7.8114955072414496,-0.51784745990675352
-0.096700000000000008,-7.785785615817236,-0.51784745990675352
-0.096674999999999997,-7.7968041407133386,-0.51413007415987055
-0.09665,-7.8225140321375406,-0.51041268841299114
-0.096625000000000003,-7.8335325570336325,-0.50669530266610985
-0.096600000000000005,-7.8372053986656631,-0.50297791691922855
-0.096575000000000008,-7.8408782402976938,-0.49926053117234731
-0.096549999999999997,-7.8372053986656631,-0.49926053117234565
-0.096525,-7.8372053986656631,-0.49554314542546607
-0.096500000000000002,-7.8408782402976938,-0.49554314542546607
-0.096475000000000005,-7.8372053986656631,-0.49182575967858483
-0.096450000000000008,-7.8298597154016019,-0.49182575967858483
-0.096424999999999997,-7.8372053986656631,-0.48810837393170192
-0.0964,-7.8372053986656631,-0.48439098818482229
-0.096375000000000002,-7.8372053986656631,-0.48067360243794105
-0.096350000000000005,-7.8408782402976938,-0.48067360243794105
-0.096325000000000008,-7.8408782402976938,-0.47695621669105981
-0.096299999999999997,-7.8408782402976938,-0.4732388309441769
-0.096274999999999999,-7.8408782402976938,-0.46952144519729733
-0.096250000000000002,-7.8372053986656631,-0.46952144519729733
-0.096225000000000005,-7.8372053986656631,-0.46580405945041609
-0.096200000000000008,-7.8298597154016019,-0.46208667370353484
-0.096174999999999997,-7.8261868737695748,-0.45836928795665355
-0.096149999999999999,-7.8335325570336325,-0.45836928795665355
-0.096125000000000002,-7.8335325570336325,-0.45465190220977231
-0.096100000000000005,-7.8298597154016019,-0.45093451646289107
-0.096075000000000008,-7.8335325570336325,-0.45093451646289107
-0.096049999999999996,-7.8335325570336325,-0.4509345164628894
-0.096024999999999999,-7.8335325570336325,-0.44721713071600983
-0.096000000000000002,-7.8335325570336325,-0.44349974496912858
-0.095975000000000005,-7.8298597154016019,-0.43978235922224734
-0.095950000000000008,-7.8298597154016019,-0.43978235922224734
-0.095924999999999996,-7.8298597154016019,-0.43606497347536444
-0.095899999999999999,-7.8298597154016019,-0.43234758772848481
-0.095875000000000002,-7.8261868737695712,-0.42863020198160356
-0.095850000000000005,-7.8298597154016019,-0.42863020198160356
-0.095825000000000007,-7.8261868737695712,-0.42491281623472232
-0.095799999999999996,-7.8298597154016019,-0.42119543048784108
-0.095774999999999999,-7.8298597154016019,-0.42119543048784108
-0.095750000000000002,-7.8225140321375406,-0.41747804474095984
-0.095725000000000005,-7.8225140321375406,-0.4137606589940786
-0.095700000000000007,-7.8225140321375406,-0.4137606589940786
-0.095674999999999996,-7.8188411905055126,-0.41004327324719569
-0.095649999999999999,-7.8225140321375406,-0.40632588750031606
-0.095625000000000002,-7.8261868737695712,-0.40260850175343482
-0.095600000000000004,-7.8261868737695712,-0.39889111600655358
-0.095575000000000007,-7.8188411905055109,-0.39517373025967234
-0.095549999999999996,-7.8225140321375406,-0.39517373025967067
-0.095524999999999999,-7.8225140321375406,-0.3914563445127911
-0.095500000000000002,-7.8225140321375406,-0.38773895876590986
-0.095475000000000004,-7.8225140321375406,-0.38773895876590986
-0.095450000000000007,-7.8188411905055109,-0.38030418727214732
-0.095424999999999996,-7.8151683488734802,-0.38030418727214566
-0.095399999999999999,-7.8151683488734802,-0.37658680152526608
-0.095375000000000001,-7.8188411905055109,-0.37286941577838484
-0.095350000000000004,-7.8188411905055109,-0.37286941577838484
-0.095325000000000007,-7.8114955072414496,-0.3691520300315036
-0.095299999999999996,-7.8041498239773901,-0.36915203003150193
-0.095274999999999999,-7.807822665609419,-0.36543464428462236
-0.095250000000000001,-7.8114955072414496,-0.36171725853774112
-0.095225000000000004,-7.8151683488734802,-0.36171725853774112
-0.095200000000000007,-7.8188411905055109,-0.35799987279085987
-0.09517500000000001,-7.8188411905055109,-0.35799987279085987
-0.095149999999999998,-7.8188411905055109,-0.35056510129709734
-0.095125000000000001,-7.8188411905055109,-0.35056510129709734
-0.095100000000000004,-7.8151683488734802,-0.3468477155502161
-0.095075000000000007,-7.7931312990812964,-0.34313032980333485
-0.095050000000000009,-7.804149823977383,-0.33941294405645528
-0.095024999999999998,-7.807822665609419,-0.33941294405645361
-0.095000000000000001,-7.807822665609419,-0.33569555830957237
-0.094975000000000004,-7.807822665609419,-0.33197817256269113
-0.094950000000000007,-7.807822665609419,-0.33197817256269113
-0.094925000000000009,-7.807822665609419,-0.32826078681581156
-0.094899999999999998,-7.8041498239773883,-0.32454340106892859
-0.094875000000000001,-7.807822665609419,-0.32082601532204735
-0.094850000000000004,-7.8004769823453577,-0.32082601532204735
-0.094825000000000007,-7.8004769823453577,-0.31710862957516611
-0.094800000000000009,-7.8004769823453577,-0.31710862957516611
-0.094774999999999998,-7.8041498239773883,-0.31339124382828487
-0.094750000000000001,-7.8004769823453577,-0.30967385808140363
-0.094725000000000004,-7.7931312990812964,-0.30595647233452239
-0.094700000000000006,-7.7894584574492658,-0.30223908658764115
-0.094675000000000009,-7.7931312990812946,-0.29852170084076152
-0.094649999999999998,-7.7968041407133271,-0.29480431509387861
-0.094625000000000001,-7.7894584574492658,-0.29108692934699737
-0.094600000000000004,-7.7784399325531748,-0.29108692934699737
-0.094575000000000006,-7.7894584574492658,-0.28736954360011613
-0.094550000000000009,-7.7931312990812946,-0.28365215785323655
-0.094524999999999998,-7.785785615817236,-0.28365215785323489
-0.094500000000000001,-7.7637485660250523,-0.27993477210635365
-0.094475000000000003,-7.7784399325531748,-0.27621738635947241
-0.094450000000000006,-7.785785615817236,-0.27621738635947241
-0.094425000000000009,-7.785785615817236,-0.27250000061259277
-0.094399999999999998,-7.7674214076570829,-0.26878261486570987
-0.094375000000000001,-7.7747670909211442,-0.26506522911882863
-0.094350000000000003,-7.7821127741852054,-0.26506522911882863
-0.094325000000000006,-7.785785615817236,-0.26134784337194739
-0.094300000000000009,-7.7821127741852072,-0.25763045762506781
-0.094274999999999998,-7.7784399325531748,-0.2539130718781849
-0.09425,-7.7821127741852054,-0.2539130718781849
-0.094225000000000003,-7.7821127741852054,-0.25019568613130366
-0.094200000000000006,-7.7821127741852054,-0.24647830038442239
